…
Below is a table summarizing the number of items ordered from aisle. In
total, there are 134 aisles, with fresh vegetables and fresh fruits
holding the most items ordered by far.

``` r
instacart %>% 
  count(aisle) %>% 
  arrange(desc(n))
```

    ## # A tibble: 134 × 2
    ##    aisle                              n
    ##    <chr>                          <int>
    ##  1 fresh vegetables              150609
    ##  2 fresh fruits                  150473
    ##  3 packaged vegetables fruits     78493
    ##  4 yogurt                         55240
    ##  5 packaged cheese                41699
    ##  6 water seltzer sparkling water  36617
    ##  7 milk                           32644
    ##  8 chips pretzels                 31269
    ##  9 soy lactosefree                26240
    ## 10 bread                          23635
    ## # … with 124 more rows
    ## # ℹ Use `print(n = ...)` to see more rows
…
## Problem 2

#### Read in the data

``` r
accel_df = read_csv("./data/accel_data.csv",
                    col_types = cols(week = "i", day_id = "i"))

accel_df
```

    ## # A tibble: 35 × 1,443
    ##     week day_id day      activ…¹ activ…² activ…³ activ…⁴ activ…⁵ activ…⁶ activ…⁷
    ##    <int>  <int> <chr>      <dbl>   <dbl>   <dbl>   <dbl>   <dbl>   <dbl>   <dbl>
    ##  1     1      1 Friday      88.4    82.2    64.4    70.0    75.0    66.3    53.8
    ##  2     1      2 Monday       1       1       1       1       1       1       1  
    ##  3     1      3 Saturday     1       1       1       1       1       1       1  
    ##  4     1      4 Sunday       1       1       1       1       1       1       1  
    ##  5     1      5 Thursday    47.4    48.8    46.9    35.8    49.0    44.8    73.4
    ##  6     1      6 Tuesday     64.8    59.5    73.7    45.7    42.4    58.4    76.8
    ##  7     1      7 Wednesd…    71.1   103.     68.5    45.4    37.8    18.3    27.5
    ##  8     2      8 Friday     675     542    1010     779     509     106     637  
    ##  9     2      9 Monday     291     335     393     335     263     675     213  
    ## 10     2     10 Saturday    64      11       1       1       1       1       1  
    ## # … with 25 more rows, 1,433 more variables: activity.8 <dbl>,
    ## #   activity.9 <dbl>, activity.10 <dbl>, activity.11 <dbl>, activity.12 <dbl>,
    ## #   activity.13 <dbl>, activity.14 <dbl>, activity.15 <dbl>, activity.16 <dbl>,
    ## #   activity.17 <dbl>, activity.18 <dbl>, activity.19 <dbl>, activity.20 <dbl>,
    ## #   activity.21 <dbl>, activity.22 <dbl>, activity.23 <dbl>, activity.24 <dbl>,
    ## #   activity.25 <dbl>, activity.26 <dbl>, activity.27 <dbl>, activity.28 <dbl>,
    ## #   activity.29 <dbl>, activity.30 <dbl>, activity.31 <dbl>, …
    ## # ℹ Use `print(n = ...)` to see more rows, and `colnames()` to see all variable names
…
accel_tidy
```

    ## # A tibble: 50,400 × 6
    ##     week day_id day    weekday_vs_weekend minute activity_counts
    ##    <int>  <int> <chr>  <chr>               <int>           <dbl>
    ##  1     1      1 Friday weekday                 1            88.4
    ##  2     1      1 Friday weekday                 2            82.2
    ##  3     1      1 Friday weekday                 3            64.4
    ##  4     1      1 Friday weekday                 4            70.0
    ##  5     1      1 Friday weekday                 5            75.0
    ##  6     1      1 Friday weekday                 6            66.3
    ##  7     1      1 Friday weekday                 7            53.8
    ##  8     1      1 Friday weekday                 8            47.8
    ##  9     1      1 Friday weekday                 9            55.5
    ## 10     1      1 Friday weekday                10            43.0
    ## # … with 50,390 more rows
    ## # ℹ Use `print(n = ...)` to see more rows
…
## Problem 3

#### Read in the data

``` r
data("ny_noaa")

ny_noaa = 
  ny_noaa %>% 
  as_tibble(ny_noaa)

ny_noaa
```

    ## # A tibble: 2,595,176 × 7
    ##    id          date        prcp  snow  snwd tmax  tmin 
    ##    <chr>       <date>     <int> <int> <int> <chr> <chr>
    ##  1 US1NYAB0001 2007-11-01    NA    NA    NA <NA>  <NA> 
    ##  2 US1NYAB0001 2007-11-02    NA    NA    NA <NA>  <NA> 
    ##  3 US1NYAB0001 2007-11-03    NA    NA    NA <NA>  <NA> 
    ##  4 US1NYAB0001 2007-11-04    NA    NA    NA <NA>  <NA> 
    ##  5 US1NYAB0001 2007-11-05    NA    NA    NA <NA>  <NA> 
    ##  6 US1NYAB0001 2007-11-06    NA    NA    NA <NA>  <NA> 
    ##  7 US1NYAB0001 2007-11-07    NA    NA    NA <NA>  <NA> 
    ##  8 US1NYAB0001 2007-11-08    NA    NA    NA <NA>  <NA> 
    ##  9 US1NYAB0001 2007-11-09    NA    NA    NA <NA>  <NA> 
    ## 10 US1NYAB0001 2007-11-10    NA    NA    NA <NA>  <NA> 
    ## # … with 2,595,166 more rows
    ## # ℹ Use `print(n = ...)` to see more rows
…
Below is a table summarizing the number of observations collected from
each weather station. In total, there are 747 weather stations, and each
station has maximum 10957 observations.

``` r
ny_noaa %>% 
  count(id) %>% 
  arrange(desc(n))
```

    ## # A tibble: 747 × 2
    ##    id              n
    ##    <chr>       <int>
    ##  1 USC00300055 10957
    ##  2 USC00300343 10957
    ##  3 USC00300889 10957
    ##  4 USC00304772 10957
    ##  5 USC00304836 10957
    ##  6 USC00304912 10957
    ##  7 USC00305426 10957
    ##  8 USC00305714 10957
    ##  9 USC00306196 10957
    ## 10 USC00309425 10957
    ## # … with 737 more rows
    ## # ℹ Use `print(n = ...)` to see more rows
…
noaa_tidy
```

    ## # A tibble: 2,595,176 × 10
    ##    id          date        prcp  snow  snwd  tmax  tmin  year month      day
    ##    <chr>       <date>     <dbl> <int> <int> <dbl> <dbl> <int> <chr>    <int>
    ##  1 US1NYAB0001 2007-11-01    NA    NA    NA    NA    NA  2007 November     1
    ##  2 US1NYAB0001 2007-11-02    NA    NA    NA    NA    NA  2007 November     2
    ##  3 US1NYAB0001 2007-11-03    NA    NA    NA    NA    NA  2007 November     3
    ##  4 US1NYAB0001 2007-11-04    NA    NA    NA    NA    NA  2007 November     4
    ##  5 US1NYAB0001 2007-11-05    NA    NA    NA    NA    NA  2007 November     5
    ##  6 US1NYAB0001 2007-11-06    NA    NA    NA    NA    NA  2007 November     6
    ##  7 US1NYAB0001 2007-11-07    NA    NA    NA    NA    NA  2007 November     7
    ##  8 US1NYAB0001 2007-11-08    NA    NA    NA    NA    NA  2007 November     8
    ##  9 US1NYAB0001 2007-11-09    NA    NA    NA    NA    NA  2007 November     9
    ## 10 US1NYAB0001 2007-11-10    NA    NA    NA    NA    NA  2007 November    10
    ## # … with 2,595,166 more rows
    ## # ℹ Use `print(n = ...)` to see more rows

``` r
noaa_tidy %>% 
  count(snow) %>% 
  arrange(desc(n))
```

    ## # A tibble: 282 × 2
    ##     snow       n
    ##    <int>   <int>
    ##  1     0 2008508
    ##  2    NA  381221
    ##  3    25   31022
    ##  4    13   23095
    ##  5    51   18274
    ##  6    76   10173
    ##  7     8    9962
    ##  8     5    9748
    ##  9    38    9197
    ## 10     3    8790
    ## # … with 272 more rows
    ## # ℹ Use `print(n = ...)` to see more rows
…
